Retrieve data for Sunsynk solar power inverters • sunsynkr
…
Day summary

You can return a summary of all power flows (and battery state of charge) at five minute intervals for a given day.

date <- lubridate::today() - lubridate::days(1)

day_summary_table <- get_day_summary_table(token, 
                                           plant_id, 
                                           date)

day_summary_table
#> # A tibble: 288 × 6
#>    dt                   pv_w battery_w `soc_%` load_w grid_w
#>    <dttm>              <dbl>     <dbl>   <dbl>  <dbl>  <dbl>
#>  1 2024-07-29 00:00:00     0        19      90    167    152
#>  2 2024-07-29 00:05:00     0        19      90    165    150
#>  3 2024-07-29 00:10:00     0        21      90    166    150
#>  4 2024-07-29 00:15:00     0        19      90    166    153
#>  5 2024-07-29 00:20:00     0        21      90    163    150
#>  6 2024-07-29 00:25:00     0        21      90    165    145
#>  7 2024-07-29 00:30:00     0        18      90    164    149
#>  8 2024-07-29 00:35:00     0        20      90    164    146
#>  9 2024-07-29 00:40:00     0        17      90    163    148
#> 10 2024-07-29 00:45:00     0        20      90    164    147
#> # ℹ 278 more rows
…
