…
### Day summary

You can return a summary of all power flows (and battery state of
charge) at five minute intervals for a given day.

``` r

date <- lubridate::today() - lubridate::days(1)

day_summary_table <- get_day_summary_table(token, 
                                           plant_id, 
                                           date)

day_summary_table
#> # A tibble: 288 × 6
#>    dt                   pv_w battery_w `soc_%` load_w grid_w
#>    <dttm>              <dbl>     <dbl>   <dbl>  <dbl>  <dbl>
#>  1 2024-07-30 00:00:00     0        15      57    172    162
#>  2 2024-07-30 00:05:00     0        14      57    172    160
#>  3 2024-07-30 00:10:00     0        17      57    169    154
#>  4 2024-07-30 00:15:00     0        15      57    170    155
#>  5 2024-07-30 00:20:00     0        13      57    161    161
#>  6 2024-07-30 00:25:00     0        16      56    171    159
#>  7 2024-07-30 00:30:00     0        17      56    166    149
#>  8 2024-07-30 00:35:00     0        17      56    167    153
#>  9 2024-07-30 00:40:00     0        16      56    170    157
#> 10 2024-07-30 00:45:00     0        13      56    165    153
#> # ℹ 278 more rows
```
…
